{
	"rules": {
		"curly": true,
		"class-name": true,
		"semicolon": ["always"],
		"triple-equals": true,
		"eofline": true,
		"indent": [
			true,
			"spaces"
		],
		"align": [
			true,
			"parameters",
			"statements"
		],
		"interface-name": [
			true,
			"always-prefix"
		],
		"ordered-imports": [
			true,
			{
				"import-sources-order": "lowercase-last"
			}
		]
	}
}